Yellow 1.1 0.9
Red 1.0 1.1
Blue 1.3 1.0
Spikey 0.7 0.6
Brown 0.7 1.0
Silver 1.0 2.0
Small 0.7 0.4
Big 1.2 2.3
Huge 1.5 3.5
Magnificant 1.4 1.4
Ugly 0.6 0.6
Totally_Awsome 2.0 1.0
Green 0.6 1.6
Glowing 2.0 0.4
Sticky 1.0 0.8
Fat 1.0 2.0
Extremely_Useless 0.3 0.4
Sweet 2.0 2.0
Black 0.8 1.2
White 1.2 0.7
Purple 1.5 1.5
Collosal 1.5 5.0
Dead 0.1 0.5
Bitter 0.7 0.7
Juicy 1.3 1.3
Geneticly_Engineered 6.0 2.0
Golden 2.0 2.0
Transparent 0.6 1.5
Teal 1.3 1.0
Clumsy 1.6 0.2
XXL 1.0 3.0
Demonic 2.0 1.0
Wild 1.1 1.0
Badass 2.0 2.0